…
    ## `summarise()` has grouped output by 'hotel', 'reservation_status_date_year'.
    ## You can override using the `.groups` argument.

``` r
print(myHotel_LMCs)
```

    ## # A tibble: 54 × 4
    ## # Groups:   hotel, reservation_status_date_year [6]
    ##    hotel      reservation_status_date_year reservation_status_dat…¹ cancelations
    ##    <fct>                             <dbl>                    <dbl>        <dbl>
    ##  1 City Hotel                         2015                        6          188
    ##  2 City Hotel                         2015                        7          453
    ##  3 City Hotel                         2015                        8          359
    ##  4 City Hotel                         2015                        9          676
    ##  5 City Hotel                         2015                       10          381
    ##  6 City Hotel                         2015                       11          369
    ##  7 City Hotel                         2015                       12          152
    ##  8 City Hotel                         2016                        1          281
    ##  9 City Hotel                         2016                        2          494
    ## 10 City Hotel                         2016                        3          535
    ## # ℹ 44 more rows
    ## # ℹ abbreviated name: ¹​reservation_status_date_month
…
